<svg id="Door" xmlns="http://www.w3.org/2000/svg" width="80" height="80" viewBox="0 0 80 80">
  <metadata><?xpacket begin="﻿" id="W5M0MpCehiHzreSzNTczkc9d"?>
<x:xmpmeta xmlns:x="adobe:ns:meta/" x:xmptk="Adobe XMP Core 5.6-c142 79.160924, 2017/07/13-01:06:39        ">
   <rdf:RDF xmlns:rdf="http://www.w3.org/1999/02/22-rdf-syntax-ns#">
      <rdf:Description rdf:about=""/>
   </rdf:RDF>
</x:xmpmeta>
                                                                                                    
                                                                                                    
                                                                                                    
                                                                                                    
                                                                                                    
                                                                                                    
                                                                                                    
                                                                                                    
                                                                                                    
                                                                                                    
                                                                                                    
                                                                                                    
                                                                                                    
                                                                                                    
                                                                                                    
                                                                                                    
                                                                                                    
                                                                                                    
                                                                                                    
                                                                                                    
                           
<?xpacket end="w"?></metadata>
<defs>
    <style>
      .cls-1, .cls-3 {
        fill: #c7222a;
      }

      .cls-1, .cls-2 {
        fill-rule: evenodd;
      }

      .cls-2 {
        fill: none;
        stroke-width: 1.5px;
      }

      .cls-2, .cls-3 {
        stroke: #c7222a;
      }

      .cls-3 {
        stroke-width: 1px;
      }
    </style>
  </defs>
  <path id="Browser" class="cls-1" d="M218.845,1751.65l0.014,25.35H269v-11.45h-1.712v9.73H220.726v-70.01h46.562v56.78H269v-58.18l-7.448.13m0,0H218.845l0.014,7.54v2.35l-0.014,37.76m1.881-47.11v1.21h46.562v-1.21H220.726Zm41.264,55.24H263.7v2.5H261.99v-2.5Zm0,5H263.7v6.27H261.99v-6.27Z" transform="translate(-203.922 -1700.44)"/>
  <path class="cls-2" d="M228,1712h6v24h-6v-24Zm13,0h6v24h-6v-24Zm12,0h6v24h-6v-24Z" transform="translate(-203.922 -1700.44)"/>
  <circle class="cls-3" cx="26.578" cy="48.06" r="2.5"/>
</svg>
