<svg xmlns="http://www.w3.org/2000/svg" width="62" height="62" viewBox="0 0 62 62">
  <metadata><?xpacket begin="﻿" id="W5M0MpCehiHzreSzNTczkc9d"?>
<x:xmpmeta xmlns:x="adobe:ns:meta/" x:xmptk="Adobe XMP Core 5.6-c142 79.160924, 2017/07/13-01:06:39        ">
   <rdf:RDF xmlns:rdf="http://www.w3.org/1999/02/22-rdf-syntax-ns#">
      <rdf:Description rdf:about=""/>
   </rdf:RDF>
</x:xmpmeta>
                                                                                                    
                                                                                                    
                                                                                                    
                                                                                                    
                                                                                                    
                                                                                                    
                                                                                                    
                                                                                                    
                                                                                                    
                                                                                                    
                                                                                                    
                                                                                                    
                                                                                                    
                                                                                                    
                                                                                                    
                                                                                                    
                                                                                                    
                                                                                                    
                                                                                                    
                                                                                                    
                           
<?xpacket end="w"?></metadata>
<defs>
    <style>
      .cls-1 {
        opacity: 0.5;
      }

      .cls-2 {
        fill-rule: evenodd;
      }
    </style>
  </defs>
  <g id="icon" class="cls-1">
    <path class="cls-2" d="M959.415,3098.85l-13.66-4.68a5.336,5.336,0,0,0-3.982.24l-0.686.33a3.853,3.853,0,0,1-3,.16l-1.173-.41a0.661,0.661,0,0,0-.166-0.09l-6.99-2.37a0.691,0.691,0,0,0-.509.04,0.641,0.641,0,0,0-.332.37l-5.873,17.03a0.662,0.662,0,0,0,.409.84l7,2.39a0.572,0.572,0,0,0,.221.04,0.578,0.578,0,0,0,.287-0.07,0.638,0.638,0,0,0,.332-0.37l5.652-16.38,0.708,0.25a5.305,5.305,0,0,0,4.026-.23l0.686-.33a3.913,3.913,0,0,1,2.965-.19l13.151,4.51a3.091,3.091,0,0,1-1.1,2.01,3.055,3.055,0,0,1-2.743.06l-5.741-1.95a0.749,0.749,0,0,0-.531.04,0.727,0.727,0,0,0-.331.42,8.019,8.019,0,0,1-3.518,4.57,7.631,7.631,0,0,1-6.183.11,0.654,0.654,0,0,0-.841.4,0.663,0.663,0,0,0,.41.84,11.427,11.427,0,0,0,3.661.66,7.477,7.477,0,0,0,3.584-.87,8.974,8.974,0,0,0,3.937-4.72l5.1,1.74a4.282,4.282,0,0,0,3.937-.22,4.819,4.819,0,0,0,1.726-3.53A0.655,0.655,0,0,0,959.415,3098.85Zm-29.145,12.38-5.752-1.95,5.442-15.78,5.6,1.9a0.843,0.843,0,0,1,.132.07l0.023,0.01Zm46.688-2.63-7.986-16.13a0.65,0.65,0,0,0-.885-0.29l-6.648,3.23a0.663,0.663,0,0,0-.309.88l7.742,15.72-2.6,2.37a31.213,31.213,0,0,1-7.378,5l-12.731,6.19a1.428,1.428,0,0,1-1.128.07,1.5,1.5,0,0,1-.852-0.75,1.409,1.409,0,0,1-.066-1.12,1.5,1.5,0,0,1,.752-0.85l7.112-3.46a0.662,0.662,0,0,0,.31-0.88,0.676,0.676,0,0,0-.885-0.31l-6.957,3.39-3.507,1.7a1.472,1.472,0,1,1-1.3-2.64l10.221-4.97a0.66,0.66,0,0,0,.309-0.88,0.676,0.676,0,0,0-.885-0.31l-7.565,3.69-2.655,1.28-1.25.61a1.5,1.5,0,0,1-1.98-.67,1.474,1.474,0,0,1,.675-1.97l1.261-.62,9.147-4.45a0.659,0.659,0,0,0,.31-0.88,0.676,0.676,0,0,0-.885-0.31l-5.873,2.86-3.274,1.6a1.427,1.427,0,0,1-1.128.06,1.484,1.484,0,0,1-.852-0.74,1.437,1.437,0,0,1-.067-1.13,1.479,1.479,0,0,1,.753-0.84l4.855-2.37a0.656,0.656,0,1,0-.575-1.18l-4.856,2.36a2.791,2.791,0,0,0-1.426,1.61,2.74,2.74,0,0,0,.132,2.13,2.768,2.768,0,0,1,.631,4.43,2.8,2.8,0,0,0,2.522,1.56c0.121,0,.243-0.01.365-0.02a2.779,2.779,0,0,0,2.765,3.24,2.852,2.852,0,0,0,1.228-.28l1.2-.6a2.657,2.657,0,0,0,.277,1.51,2.806,2.806,0,0,0,1.615,1.42,2.885,2.885,0,0,0,.918.15,2.926,2.926,0,0,0,1.228-.28l12.731-6.19a32.547,32.547,0,0,0,7.687-5.23l2.887-2.64,6.559-3.19A0.659,0.659,0,0,0,976.958,3108.6Zm-6.968,2.69-7.378-14.99,5.464-2.65,7.367,14.99Z" transform="translate(-919.015 -3078.5)"/>
  </g>
</svg>
