<svg id="Icon" xmlns="http://www.w3.org/2000/svg" width="80" height="80" viewBox="0 0 80 80">
  <metadata><?xpacket begin="﻿" id="W5M0MpCehiHzreSzNTczkc9d"?>
<x:xmpmeta xmlns:x="adobe:ns:meta/" x:xmptk="Adobe XMP Core 5.6-c142 79.160924, 2017/07/13-01:06:39        ">
   <rdf:RDF xmlns:rdf="http://www.w3.org/1999/02/22-rdf-syntax-ns#">
      <rdf:Description rdf:about=""/>
   </rdf:RDF>
</x:xmpmeta>
                                                                                                    
                                                                                                    
                                                                                                    
                                                                                                    
                                                                                                    
                                                                                                    
                                                                                                    
                                                                                                    
                                                                                                    
                                                                                                    
                                                                                                    
                                                                                                    
                                                                                                    
                                                                                                    
                                                                                                    
                                                                                                    
                                                                                                    
                                                                                                    
                                                                                                    
                                                                                                    
                           
<?xpacket end="w"?></metadata>
<defs>
    <style>
      .cls-1, .cls-2 {
        fill: #fff;
      }

      .cls-1, .cls-2, .cls-3, .cls-4 {
        stroke: #7c7c7c;
      }

      .cls-1 {
        stroke-width: 1.5px;
      }

      .cls-2, .cls-3, .cls-4 {
        stroke-width: 1px;
      }

      .cls-2 {
        opacity: 0.2;
      }

      .cls-3 {
        fill: none;
      }

      .cls-3, .cls-4 {
        fill-rule: evenodd;
      }

      .cls-4 {
        fill: #f2f3f6;
      }
    </style>
  </defs>
  <rect id="Rounded_Rectangle_502" data-name="Rounded Rectangle 502" class="cls-1" x="13" y="15.875" width="54" height="39" rx="3" ry="3"/>
  <rect id="Rounded_Rectangle_502_copy_2" data-name="Rounded Rectangle 502 copy 2" class="cls-2" x="14" y="17.875" width="52" height="29"/>
  <rect id="Rounded_Rectangle_502_copy" data-name="Rounded Rectangle 502 copy" class="cls-2" x="16" y="17.875" width="48" height="27" rx="3" ry="3"/>
  <path class="cls-3" d="M1244,2383h12l2,10h-16Z" transform="translate(-1210 -2329.125)"/>
  <path class="cls-4" d="M1240,2393.5V2392h20v1.5h-20Z" transform="translate(-1210 -2329.125)"/>
</svg>
